<?xml version="1.0" encoding="utf-8"?>
<!-- Generator: Adobe Illustrator 17.1.0, SVG Export Plug-In . SVG Version: 6.00 Build 0)  -->
<!DOCTYPE svg PUBLIC "-//W3C//DTD SVG 1.1//EN" "http://www.w3.org/Graphics/SVG/1.1/DTD/svg11.dtd">
<svg version="1.1" id="Layer_1" xmlns="http://www.w3.org/2000/svg" xmlns:xlink="http://www.w3.org/1999/xlink" x="0px" y="0px"
	 viewBox="0 0 50 50" enable-background="new 0 0 50 50" xml:space="preserve">
<g>
	<rect x="13.8" y="17" transform="matrix(-0.6905 -0.7233 0.7233 -0.6905 7.7878 66.7692)" width="8.8" height="29.5"/>
	<path d="M45.6,5.9c-1.3,0.3-5.8,5.1-7,5.1c-1.8,0-5.3,0.2-7,0.6c-1.8,0.4-3.5,1.4-4.4,2.9c-0.8,1.3,7.7,6.8,10.5,5.7
		c2.8-1.1,6.3-4.9,6.6-8C44.5,10,43.8,7.2,45.6,5.9"/>
</g>
</svg>
