<?xml version="1.0" encoding="utf-8"?>
<!-- Generator: Adobe Illustrator 17.1.0, SVG Export Plug-In . SVG Version: 6.00 Build 0)  -->
<!DOCTYPE svg PUBLIC "-//W3C//DTD SVG 1.1//EN" "http://www.w3.org/Graphics/SVG/1.1/DTD/svg11.dtd">
<svg version="1.1" id="Layer_1" xmlns="http://www.w3.org/2000/svg" xmlns:xlink="http://www.w3.org/1999/xlink" x="0px" y="0px"
	 viewBox="0 0 50 50" enable-background="new 0 0 50 50" xml:space="preserve">
<g>
	
		<line fill="none" stroke="#000000" stroke-width="3" stroke-linecap="square" stroke-miterlimit="10" x1="20.3" y1="12.6" x2="32.5" y2="24.3"/>
	
		<line fill="none" stroke="#000000" stroke-width="3" stroke-linecap="square" stroke-miterlimit="10" x1="32.3" y1="24.1" x2="20.8" y2="36.4"/>
</g>
</svg>
