<?xml version="1.0" encoding="utf-8"?>
<!-- Generator: Adobe Illustrator 17.1.0, SVG Export Plug-In . SVG Version: 6.00 Build 0)  -->
<!DOCTYPE svg PUBLIC "-//W3C//DTD SVG 1.1//EN" "http://www.w3.org/Graphics/SVG/1.1/DTD/svg11.dtd">
<svg version="1.1" id="Layer_1" xmlns="http://www.w3.org/2000/svg" xmlns:xlink="http://www.w3.org/1999/xlink" x="0px" y="0px"
	 viewBox="0 0 50 50" enable-background="new 0 0 50 50" xml:space="preserve">
<g>
	<path fill="#FFFFFF" d="M6,3v44h37V3H6z M15.4,8.4c2.2,0,3,1.6,3,1.6s0.7-1.6,3-1.6c2.2,0,3.3,2.7,2.8,4.8
		c-0.2,0.7-0.6,1.3-1.1,1.8c-0.4,0.4-3.8,3.7-4.6,4.5c0,0.1-0.1,0.2-0.1,0.2s0,0-0.1-0.1c0,0,0,0,0,0s0,0,0-0.1
		c-0.4-0.4-1.6-1.6-2.6-2.7c-0.9-0.9-1.8-1.8-2-2c-0.5-0.5-0.8-1-1-1.7C12.1,11.1,13.2,8.4,15.4,8.4z M23,42H10v-2h13V42z M23,38H10
		v-2h13V38z M23,34H10v-2h13V34z M23,30H10v-2h13V30z M23,26H10v-2h13V26z M39,42H25v-2h14V42z M39,38H25v-2h14V38z M39,34H25v-2h14
		V34z M39,30H25v-2h14V30z M39,26H25v-2h14V26z M39,21H25v-2h14V21z M39,17H25v-2h14V17z M39,13H25v-2h14V13z"/>
</g>
</svg>
